num blocks,30;31;32;33;34;35;36;37;38;39;40;41;42;43;44;45;46;47;48;49;50;
CPU MQDB product,234.9711;273.2955;162.6229;155.9450;168.5040;164.6320;117.2029;130.2010;134.7575;115.0170;87.4695;60.7950;45.6760;53.4170;33.3531;36.9968;26.6734;15.5980;18.7509;12.4460;11.1630;
Kernel mat product naive,146.6506;146.8760;147.6512;147.2949;145.2510;146.1015;145.3700;145.9510;145.4800;145.7368;145.1760;145.3100;146.3610;145.4281;146.2160;145.6080;146.7172;145.1982;147.3900;146.1221;146.3632;
Kernel MQDB product,2.0830;2.3540;1.3890;1.3146;1.3730;1.3510;0.8450;1.0050;1.0160;0.9130;0.6690;0.4830;0.4100;0.4180;0.2940;0.3340;0.2660;0.2000;0.2320;0.1800;0.1700;
Kernel MQDB product with dynamic parall. GRID(1),2.0710;2.3680;1.3270;1.3420;1.4510;1.3740;0.9270;1.0170;1.0330;0.9080;0.7030;0.4850;0.4220;0.4160;0.2940;0.3270;0.2660;0.2000;0.2320;0.1810;0.1690;
Kernel MQDB product with dynamic parall. GRID(k),2.0760;2.3550;1.4920;1.4130;1.5230;1.4980;1.0570;1.1710;1.2000;1.0922;0.8890;0.7370;0.6650;0.6840;0.5730;0.6110;0.5590;0.5010;0.5390;0.4960;0.4910;
density,0.0934;0.0973;0.0804;0.0773;0.0788;0.0772;0.0657;0.0679;0.0680;0.0640;0.0572;0.0512;0.0476;0.0475;0.0427;0.0430;0.0396;0.0362;0.0371;0.0339;0.0327;