^C:\Users\tovy9\Documents\Visual Studio 2017\Projects\CUDA C\HelloWorld\HelloWorld\HelloWorld.vcxproj
C:\Users\tovy9\Documents\Visual Studio 2017\Projects\CUDA C\HelloWorld\x64\Debug\HelloWorld.lib
C:\Users\tovy9\Documents\Visual Studio 2017\Projects\CUDA C\HelloWorld\x64\Debug\HelloWorld.exp
^C:\Users\tovy9\Documents\Visual Studio 2017\Projects\CUDA C\HelloWorld\HelloWorld\HelloWorld.vcxproj
C:\Users\tovy9\Documents\Visual Studio 2017\Projects\CUDA C\HelloWorld\x64\Debug\HelloWorld.lib
C:\Users\tovy9\Documents\Visual Studio 2017\Projects\CUDA C\HelloWorld\x64\Debug\HelloWorld.exp
^C:\Users\tovy9\Documents\Visual Studio 2017\Projects\CUDA C\HelloWorld\HelloWorld\HelloWorld.vcxproj
C:\Users\tovy9\Documents\Visual Studio 2017\Projects\CUDA C\HelloWorld\x64\Debug\HelloWorld.lib
C:\Users\tovy9\Documents\Visual Studio 2017\Projects\CUDA C\HelloWorld\x64\Debug\HelloWorld.exp
^C:\Users\tovy9\Documents\Visual Studio 2017\Projects\CUDA C\HelloWorld\HelloWorld\HelloWorld.vcxproj
C:\Users\tovy9\Documents\Visual Studio 2017\Projects\CUDA C\HelloWorld\x64\Debug\HelloWorld.lib
C:\Users\tovy9\Documents\Visual Studio 2017\Projects\CUDA C\HelloWorld\x64\Debug\HelloWorld.exp
^C:\Users\tovy9\Documents\Visual Studio 2017\Projects\CUDA C\HelloWorld\HelloWorld\HelloWorld.vcxproj
C:\Users\tovy9\Documents\Visual Studio 2017\Projects\CUDA C\HelloWorld\x64\Debug\HelloWorld.lib
C:\Users\tovy9\Documents\Visual Studio 2017\Projects\CUDA C\HelloWorld\x64\Debug\HelloWorld.exp
^C:\Users\tovy9\Documents\Visual Studio 2017\Projects\CUDA C\HelloWorld\HelloWorld\HelloWorld.vcxproj
C:\Users\tovy9\Documents\Visual Studio 2017\Projects\CUDA C\HelloWorld\x64\Debug\HelloWorld.lib
C:\Users\tovy9\Documents\Visual Studio 2017\Projects\CUDA C\HelloWorld\x64\Debug\HelloWorld.exp
^C:\Users\tovy9\Documents\Visual Studio 2017\Projects\CUDA C\HelloWorld\HelloWorld\HelloWorld.vcxproj
C:\Users\tovy9\Documents\Visual Studio 2017\Projects\CUDA C\HelloWorld\x64\Debug\HelloWorld.lib
C:\Users\tovy9\Documents\Visual Studio 2017\Projects\CUDA C\HelloWorld\x64\Debug\HelloWorld.exp
^C:\Users\tovy9\Documents\Visual Studio 2017\Projects\CUDA C\HelloWorld\HelloWorld\HelloWorld.vcxproj
C:\Users\tovy9\Documents\Visual Studio 2017\Projects\CUDA C\HelloWorld\x64\Debug\HelloWorld.lib
C:\Users\tovy9\Documents\Visual Studio 2017\Projects\CUDA C\HelloWorld\x64\Debug\HelloWorld.exp
^C:\Users\tovy9\Documents\Visual Studio 2017\Projects\CUDA C\HelloWorld\HelloWorld\HelloWorld.vcxproj
C:\Users\tovy9\Documents\Visual Studio 2017\Projects\CUDA C\HelloWorld\x64\Debug\HelloWorld.lib
C:\Users\tovy9\Documents\Visual Studio 2017\Projects\CUDA C\HelloWorld\x64\Debug\HelloWorld.exp
^C:\Users\tovy9\Documents\Visual Studio 2017\Projects\CUDA C\HelloWorld\HelloWorld\HelloWorld.vcxproj
C:\Users\tovy9\Documents\Visual Studio 2017\Projects\CUDA C\HelloWorld\x64\Debug\HelloWorld.lib
C:\Users\tovy9\Documents\Visual Studio 2017\Projects\CUDA C\HelloWorld\x64\Debug\HelloWorld.exp
^C:\Users\tovy9\Documents\Visual Studio 2017\Projects\CUDA C\HelloWorld\HelloWorld\HelloWorld.vcxproj
C:\Users\tovy9\Documents\Visual Studio 2017\Projects\CUDA C\HelloWorld\x64\Debug\HelloWorld.lib
C:\Users\tovy9\Documents\Visual Studio 2017\Projects\CUDA C\HelloWorld\x64\Debug\HelloWorld.exp
^C:\Users\tovy9\Documents\Visual Studio 2017\Projects\CUDA C\HelloWorld\HelloWorld\HelloWorld.vcxproj
C:\Users\tovy9\Documents\Visual Studio 2017\Projects\CUDA C\HelloWorld\x64\Debug\HelloWorld.lib
C:\Users\tovy9\Documents\Visual Studio 2017\Projects\CUDA C\HelloWorld\x64\Debug\HelloWorld.exp
^C:\Users\tovy9\Documents\Visual Studio 2017\Projects\CUDA C\HelloWorld\HelloWorld\HelloWorld.vcxproj
C:\Users\tovy9\Documents\Visual Studio 2017\Projects\CUDA C\HelloWorld\x64\Debug\HelloWorld.lib
C:\Users\tovy9\Documents\Visual Studio 2017\Projects\CUDA C\HelloWorld\x64\Debug\HelloWorld.exp
^C:\Users\tovy9\Documents\Visual Studio 2017\Projects\CUDA C\HelloWorld\HelloWorld\HelloWorld.vcxproj
C:\Users\tovy9\Documents\Visual Studio 2017\Projects\CUDA C\HelloWorld\x64\Debug\HelloWorld.lib
C:\Users\tovy9\Documents\Visual Studio 2017\Projects\CUDA C\HelloWorld\x64\Debug\HelloWorld.exp
